{
  "integrationFolder": "cypress/integration",
  "supportFile": "cypress/support/index.ts",
  "videosFolder": "cypress/videos",
  "screenshotsFolder": "cypress/screenshots",
  "pluginsFile": "cypress/plugins/index.ts",
  "fixturesFolder": "cypress/fixtures",
  "baseUrl": "https://photo-app-173bb.web.app",
  "defaultCommandTimeout": 12000,
  "projectId": "f3r7hs",
  "viewportWidth": 2000,
  "viewportHeight": 1000
}
