{
  "emulators": {
    "auth": {
      "port": 9099
    },
    "ui": {
      "enabled": true,
      "port": 9100
    },
    "firestore": {
      "port": 8080
    },
    "storage": {
      "port": 9199
    }
  },
  "hosting": {
    "public": "dist/website",
    "ignore": [
      "firebase.json",
      "**/.*",
      "**/node_modules/**"
    ],
    "rewrites": [
      {
        "source": "**",
        "destination": "/index.html"
      }
    ]
  }
}
